…
Accelerometer dataset describes the activity of a man along a course of
three weeks. There are 35 rows, each of them represents one day with
activity for each second of the day. We added additional column
weekday\_vs\_weekend to indicate if a day is a weekday or weekend.

``` r
accel_data %>% 
  mutate(
    sum_day = rowSums(select(accel_data, 5:1144))
  ) %>% 
  select(week, day_id, day, weekday_vs_weekend, sum_day) 
```

    ## # A tibble: 35 x 5
    ##     week day_id day       weekday_vs_weekend sum_day
    ##    <dbl>  <dbl> <chr>     <chr>                <dbl>
    ##  1     1      1 Friday    weekday            257639.
    ##  2     1      2 Monday    weekday              4921.
    ##  3     1      3 Saturday  weekend            305456 
    ##  4     1      4 Sunday    weekend            543328 
    ##  5     1      5 Thursday  weekday            267276.
    ##  6     1      6 Tuesday   weekday            245143.
    ##  7     1      7 Wednesday weekday            266028.
    ##  8     2      8 Friday    weekday            360616 
    ##  9     2      9 Monday    weekday            222404 
    ## 10     2     10 Saturday  weekend            379189 
    ## # … with 25 more rows
…
